"Florist ID"	"Florist Name"	"Street Address 1"	"Street Address 2"	"City"	"State"	"Zip"	"Contact"	"Territory"	"Shop Code"	"Florist Class"	"LFC?"	"MAC Code"	"MAC Name"	"HA Number"	"Membership"	"TLO only"	"Sunday"	"Bloomlink"	"Dont Send"	"Dont send shop to shop"	"Date entered"	"Direct Pay Start Date"	"Specialty Program"	"Status"	"Billing"	"Start Date"	"Ending Date"	"Frequency"	"Florist Status"	"PhoneNumber1"	"PhoneType1"	"PhoneNumber2"	"PhoneType2"	"PhoneNumber3"	"PhoneType3"	"PhoneNumber4"	"PhoneType4"	"PhoneNumber5"	"PhoneType5"	"Email Address1"	"Email Address2"	"Email Address3"	"Email Address4"	"Email Address5"
"40393"	"HALLS GARDEN CENTER"	"700 SPRINGFIELD AVE"	""	"BERKELEY HEIGHTS"	"NJ"	"07922"	"ALLISON LA HOFF"	"Territory 2"	"U7730000"	"P"	"N"	"0171"	"MAROHN"	"129693368"	"G"	"N"	"Y"	"Y"	"N"	"N"	"17-DEC-98"	"08-SEP-06"	""	""	""	""	""	""	"A"	"9086650331"	"WP"	"8004502401"	"80"	"9086659804"	"WF"	""	""	""	""	"HALLSFLORIST@HOTMAIL.COM"
"Error while validating the Membership :G  Error: null"
"3358065685"	"MAGIC WORLD OF ROSES"	"331 AMPERE PKWY"	""	"BLOOMFIELD"	"NJ"	"07003"	"DULCE SORIANO"	"Territory 2"	"F5240000"	"P"	"N"	"0171"	"MAROHN"	"227715374"	"S"	"N"	"Y"	"Y"	"N"	"N"	"05-APR-19"	"05-APR-19"	""	""	""	""	""	""	"A"	"8622133100"	"WP"	""	""	""	""	""	""	""	""	"mwofroses@gmail.com"
"Error while validating the Territory :Territory 2"
"3405606285"	"ONE OF A KIND DESIGN"	"1601 BERKSHIRE RD"	""	"BAKERSFIELD"	"CA"	"93307"	"ANNA ZENDEJAS"	"Territory 5"	"G2120000"	"P"	"N"	"2139"	"CASTRO"	"229980799"	"S"	"N"	"Y"	"Y"	"N"	"N"	"20-JUN-19"	"20-JUN-19"	""	""	""	""	""	""	"A"	"6612818620"	"WP"	""	""	""	""	""	""	""	""	"anna.zendejas@yahoo.com"
"Error while validating the Territory :Territory 5"
"3434736390"	"NEW ROCHELLE FLORIST"	"60 MEMORIAL HWY"	""	"NEW ROCHELLE"	"NY"	"10801"	"MILDRED GONZALEZ"	"Territory 7"	"G5510000"	"P"	"N"	"0362"	"TANTILLO"	"230462012"	"P"	"N"	"Y"	"Y"	"N"	"N"	"23-JUL-19"	"23-JUL-19"	""	""	""	""	""	""	"A"	"9143552738"	"WP"	""	""	""	""	""	""	""	""	"suttonflorist@aol.com"
"Error while validating the Territory :Territory 7"
"3472302002"	"CORDOVA FLOWERS AND GIFTS"	"6200 TIPPIN AVE"	""	"PENSACOLA"	"FL"	"32504"	"EKATERIA LYNCH"	"Territory 3"	"G8150000"	"P"	"N"	"2686"	"MAROTTA"	"231057903"	"G"	"N"	"Y"	"Y"	"N"	"N"	"26-AUG-19"	"27-AUG-19"	""	""	""	""	""	""	"A"	"8506027069"	"WP"	""	""	""	""	""	""	""	""	"cordovaflowersandgifts@gmail.com"
"Error while validating the Membership :G  Error: null"
"3360867326"	"SUSANAS FLOWERS"	"19731 VILLAGE RIDGE DR"	""	"TOMBALL"	"TX"	"77375"	"DANIELA S AVELINO"	"Territory 4"	"F5970000"	"P"	"N"	"0204"	"SPAULDING"	"227865979"	"S"	"N"	"Y"	"Y"	"N"	"N"	"12-APR-19"	"12-APR-19"	""	""	""	""	""	""	"A"	"8324381678"	"WP"	""	""	""	""	""	""	""	""	"susanaflowers1017@gmail.com"
"Error while validating the Territory :Territory 4"
"3360929581"	"GRANNYS GRAND FLORAL ARRANGEMENTS"	"18260 WOODINGHAM DR"	""	"DETROIT"	"MI"	"48221"	"EUREKA COOK"	"Territory 3"	"F6440000"	"P"	"N"	"6222"	"TAGGART"	"227868779"	"G"	"N"	"Y"	"Y"	"N"	"N"	"12-APR-19"	"12-APR-19"	""	""	""	""	""	""	"A"	"3133402475"	"WP"	""	""	""	""	""	""	""	""	"Grannysgrandfa@gmail.com"
"Error while validating the Membership :G  Error: null"
"1960090772"	"ESSENCE FLOWERS"	"200 LEWIS RD UNIT 345"	""	"SAN JOSE"	"CA"	"95111"	"HAHN DUC PHUNG"	"Territory 5"	"S0430000"	"P"	"N"	"9354"	"FRESCH"	"200022254"	"G"	"N"	"Y"	"Y"	"N"	"N"	"07-OCT-16"	"07-OCT-16"	""	""	""	""	""	""	"A"	"4086685990"	"WP"	""	""	""	""	""	""	""	""	"essenceflowers408@gmail.com"
"Error while validating the Membership :G  Error: null"
"1597967000"	"HB FLORIST"	"2911 AMAY JAMES AVE"	""	"CHARLOTTE"	"NC"	"28208"	"HATTIE CLOUD"	"Territory 1"	"W9600000"	"P"	"N"	"5840"	"SPRY"	"183018703"	"G"	"N"	"Y"	"Y"	"N"	"N"	"20-DEC-13"	"20-DEC-13"	""	""	""	""	""	""	"A"	"7044921182"	"WP"	""	""	""	""	""	""	""	""	"HBFLORISTCHARLOTTE@GMAIL.COM"
"Error while validating the Membership :G  Error: null"
"21155"	"1-800-FLOWERS - SHOPPE DNC"	"4444 EAST GRANT RD"	"STE 124"	"TUCSON"	"AZ"	"85712"	"ANNA TOPCHIY"	"Territory 8"	"K3070000"	"P"	"N"	"2139"	"CASTRO"	"116337619"	"1"	"N"	"Y"	"Y"	"N"	"N"	"17-DEC-98"	"22-SEP-03"	"MARTHA STEWART FOR 1-800-FLOWERS.COM"	"Yes"	"0"	"01-MAR-08"	""	"Monthly"	"A"	"5203250877"	"WP"	"5203252317"	"WF"	"8003250877"	"80"	""	""	""	""	"annatopchiy@yahoo.com"
"Error while validating the Membership :1  Error: null"
"1789827657"	"MICHAEL'S GREENHOUSE"	"2774 ONEIDA ST"	""	"SAUQUOIT"	"NY"	"13456"	"MICHAEL A RICCARDI"	"Territory 7"	"H1180000"	"P"	"N"	"0362"	"TANTILLO"	"192692704"	"P"	"N"	"Y"	"Y"	"N"	"N"	"07-AUG-15"	"07-AUG-15"	""	""	""	""	""	""	"A"	"3157378181"	"WP"	"3157378282"	"WF"	""	""	""	""	""	""	"michaelsgreenhouse@gmail.com"
"Error while validating the Territory :Territory 7"
