Abbrevation,CountryCode
AL,USA
AK,USA
AZ,USA
AR,USA
CA,USA
CO,USA
CT,USA
DE,USA
FL,USA
GA,USA
HI,USA
ID,USA
IL,USA
IN,USA
IA,USA
KS,USA
KY,USA
LA,USA
ME,USA
MD,USA
MA,USA
MI,USA
MN,USA
MS,USA
MO,USA
MT,USA
NE,USA
NV,USA
NH,USA
NJ,USA
NM,USA
NY,USA
NC,USA
ND,USA
OH,USA
OK,USA
OR,USA
PA,USA
RI,USA
SC,USA
SD,USA
TN,USA
TX,USA
UT,USA
VT,USA
VA,USA
DC,USA
WA,USA
WV,USA
WI,USA
WY,USA
PR,USA
VI,USA
NX,USA
AG,Argentina
BZ,Belize
BE,Bermuda
BO,Bolivia
BR,Brazil
CH,Chile
CS,Colombia
CR,Costa Rica
DR,Dominican Republic
EC,Ecuador
ES,El Salvador
GU,Guam
GT,Guatemala
HA,Haiti
HO,Honduras
JA,Japan
KO,Korea
MX,Mexico
NI,Nicaragua
PW,Palau
PY,Paraguay
PH,Philippines
TW,Taiwan
UY,Uruguay
VE,Venezuela
AB,Canada
BC,Canada
MB,Canada
NB,Canada
NF,Canada
NT,Canada
NS,Canada
ON,Canada
PE,Canada
PQ,Canada
SK,Canada
YT,Canada
